(module SCREW_3mm (layer F.Cu) (tedit 55BCD7BD)
  (fp_text reference REF** (at 0 3.81) (layer F.SilkS) hide
    (effects (font (size 1 1) (thickness 0.15)))
  )
  (fp_text value SCREW_3mm (at 0 -3.81) (layer F.Fab) hide
    (effects (font (size 1 1) (thickness 0.15)))
  )
  (pad 1 thru_hole circle (at 0 0) (size 5 5) (drill 3) (layers *.Cu *.Mask F.SilkS))
)
