PCBNEW-LibModule-V1  2013. júl.  3., szerda, 10.56.06 CEST
# encoding utf-8
Units mm
$INDEX
3TAP
$EndINDEX
$MODULE 3TAP
Po 0 0 0 15 51D3E71A 00000000 ~~
Li 3TAP
Sc 0
AR 
Op 0 0 0
T0 0 -2.625 1.5 1.5 0 0.15 N I 21 N "3TAP"
T1 0 -1.25 0.5 0.5 0 0.125 N V 21 N "VAL**"
$PAD
Sh "1" R 1.2 1.2 0 0 0
Dr 0 0 0
At SMD N 00888000
Ne 0 ""
Po -1.5 0
$EndPAD
$PAD
Sh "2" R 1.2 1.2 0 0 0
Dr 0 0 0
At SMD N 00888000
Ne 0 ""
Po 0 0
$EndPAD
$PAD
Sh "3" R 1.2 1.2 0 0 0
Dr 0 0 0
At SMD N 00888000
Ne 0 ""
Po 1.5 0
$EndPAD
$EndMODULE 3TAP
$EndLIBRARY
