PCBNEW-LibModule-V1  2013. júl.  2., kedd, 14.05.19 CEST
# encoding utf-8
Units mm
$INDEX
microusb
$EndINDEX
$MODULE microusb
Po 0 0 0 15 51D2C1EA 00000000 ~~
Li microusb
Sc 0
AR 
Op 0 0 0
T0 -8.575 -13.525 1.5 1.5 0 0.15 N V 21 N "microusb"
T1 -11.025 -10.85 1.5 1.5 0 0.15 N V 21 N "VAL**"
DS -3.75 1.45 3.75 1.45 0.15 21
DS 4.4 -0.7 3.75 -0.7 0.15 21
DS 4.4 -0.7 4.4 0.7 0.15 21
DS 4.4 0.7 3.75 0.7 0.15 21
DS -4.4 -0.7 -3.775 -0.7 0.15 21
DS -4.4 -0.7 -4.4 0.7 0.15 21
DS -4.4 0.7 -3.775 0.7 0.15 21
DS 3.725 2.125 4.35 2.75 0.15 21
DS -3.725 2.125 -4.35 2.75 0.15 21
DS -3 2.175 -3 2.75 0.15 21
DS -3 2.75 3 2.75 0.15 21
DS 3 2.75 3 2.15 0.15 21
DS 3.75 0 3.75 -2.85 0.15 21
DS 3.75 -2.85 -3.75 -2.85 0.15 21
DS -3.75 -2.85 -3.75 0 0.15 21
DS -3.75 0 -3.75 2.15 0.15 21
DS -3.75 2.15 3.75 2.15 0.15 21
DS 3.75 2.15 3.75 0.025 0.15 21
DS 3.75 0.025 3.75 0 0.15 21
$PAD
Sh "P1" R 2.3 1.9 0 0 0
Dr 0 0 0
At SMD N 00888000
Ne 0 ""
Po -3.75 0
$EndPAD
$PAD
Sh "P4" R 2.3 1.9 0 0 0
Dr 0 0 0
At SMD N 00888000
Ne 0 ""
Po 3.75 0
$EndPAD
$PAD
Sh "P2" R 1.9 1.9 0 0 0
Dr 0 0 0
At SMD N 00888000
Ne 0 ""
Po -1.1 0
$EndPAD
$PAD
Sh "P3" R 1.9 1.9 0 0 0
Dr 0 0 0
At SMD N 00888000
Ne 0 ""
Po 1.1 0
$EndPAD
$PAD
Sh "1" R 0.4 1.4 0 0 0
Dr 0 0 0
At SMD N 00888000
Ne 0 ""
Po -1.3 -2.85
$EndPAD
$PAD
Sh "2" R 0.4 1.4 0 0 0
Dr 0 0 0
At SMD N 00888000
Ne 0 ""
Po -0.65 -2.85
$EndPAD
$PAD
Sh "3" R 0.4 1.4 0 0 0
Dr 0 0 0
At SMD N 00888000
Ne 0 ""
Po 0 -2.85
$EndPAD
$PAD
Sh "4" R 0.4 1.4 0 0 0
Dr 0 0 0
At SMD N 00888000
Ne 0 ""
Po 0.65 -2.85
$EndPAD
$PAD
Sh "5" R 0.4 1.4 0 0 0
Dr 0 0 0
At SMD N 00888000
Ne 0 ""
Po 1.3 -2.85
$EndPAD
$EndMODULE microusb
$EndLIBRARY
